PROYECTO_EDIFICIO/simulation/qsim/PROYECTO_SD2.msim.vcd
$comment
	File created using the following command:
		vcd file PROYECTO_SD2.msim.vcd -direction
$end
$date
	Tue Jan 23 22:47:50 2024
$end
$version
	ModelSim Version 10.5b
$end
$timescale
	1ps
$end

$scope module mss2_vhd_vec_tst $end
$var wire 1 ! Clock $end
$var wire 1 " en_contA $end
$var wire 1 # en_contB $end
$var wire 1 $ en_contC $end
$var wire 1 % en_piso1 $end
$var wire 1 & en_piso2 $end
$var wire 1 ' en_piso3 $end
$var wire 1 ( enReg1 $end
$var wire 1 ) enReg2 $end
$var wire 1 * enReg3 $end
$var wire 1 + fullA $end
$var wire 1 , fullB $end
$var wire 1 - fullC $end
$var wire 1 . fullRamA $end
$var wire 1 / fullRamB $end
$var wire 1 0 fullRamC $end
$var wire 1 1 ld_contA $end
$var wire 1 2 ld_contB $end
$var wire 1 3 ld_contC $end
$var wire 1 4 r $end
$var wire 1 5 r2 $end
$var wire 1 6 r3 $end
$var wire 1 7 Resetn $end
$var wire 1 8 Sensor_luz_piso1 $end
$var wire 1 9 sensor_luz_piso2 $end
$var wire 1 : sensor_luz_piso3 $end
$var wire 1 ; sensor_movimiento_piso1 $end
$var wire 1 < sensor_movimiento_piso2 $end
$var wire 1 = sensor_movimiento_piso3 $end
$var wire 1 > START $end
$var wire 1 ? state1 $end
$var wire 1 @ state2 $end
$var wire 1 A state3 $end
$var wire 1 B state4 $end
$var wire 1 C w $end
$var wire 1 D w2 $end
$var wire 1 E w3 $end

$scope module i1 $end
$var wire 1 F gnd $end
$var wire 1 G vcc $end
$var wire 1 H unknown $end
$var wire 1 I devoe $end
$var wire 1 J devclrn $end
$var wire 1 K devpor $end
$var wire 1 L ww_devoe $end
$var wire 1 M ww_devclrn $end
$var wire 1 N ww_devpor $end
$var wire 1 O ww_Clock $end
$var wire 1 P ww_Resetn $end
$var wire 1 Q ww_START $end
$var wire 1 R ww_Sensor_luz_piso1 $end
$var wire 1 S ww_sensor_movimiento_piso1 $end
$var wire 1 T ww_sensor_luz_piso2 $end
$var wire 1 U ww_sensor_movimiento_piso2 $end
$var wire 1 V ww_sensor_luz_piso3 $end
$var wire 1 W ww_sensor_movimiento_piso3 $end
$var wire 1 X ww_en_piso1 $end
$var wire 1 Y ww_en_piso2 $end
$var wire 1 Z ww_en_piso3 $end
$var wire 1 [ ww_enReg1 $end
$var wire 1 \ ww_enReg2 $end
$var wire 1 ] ww_enReg3 $end
$var wire 1 ^ ww_en_contA $end
$var wire 1 _ ww_en_contB $end
$var wire 1 ` ww_en_contC $end
$var wire 1 a ww_ld_contA $end
$var wire 1 b ww_ld_contB $end
$var wire 1 c ww_ld_contC $end
$var wire 1 d ww_fullRamA $end
$var wire 1 e ww_fullRamB $end
$var wire 1 f ww_fullRamC $end
$var wire 1 g ww_fullA $end
$var wire 1 h ww_fullB $end
$var wire 1 i ww_fullC $end
$var wire 1 j ww_r $end
$var wire 1 k ww_r2 $end
$var wire 1 l ww_r3 $end
$var wire 1 m ww_w $end
$var wire 1 n ww_w2 $end
$var wire 1 o ww_w3 $end
$var wire 1 p ww_state1 $end
$var wire 1 q ww_state2 $end
$var wire 1 r ww_state3 $end
$var wire 1 s ww_state4 $end
$var wire 1 t \Sensor_luz_piso1~input_o\ $end
$var wire 1 u \sensor_movimiento_piso1~input_o\ $end
$var wire 1 v \sensor_luz_piso2~input_o\ $end
$var wire 1 w \sensor_movimiento_piso2~input_o\ $end
$var wire 1 x \fullRamA~input_o\ $end
$var wire 1 y \fullRamB~input_o\ $end
$var wire 1 z \fullA~input_o\ $end
$var wire 1 { \fullB~input_o\ $end
$var wire 1 | \~QUARTUS_CREATED_GND~I_combout\ $end
$var wire 1 } \Clock~input_o\ $end
$var wire 1 ~ \Clock~inputCLKENA0_outclk\ $end
$var wire 1 !! \sensor_luz_piso3~input_o\ $end
$var wire 1 "! \sensor_movimiento_piso3~input_o\ $end
$var wire 1 #! \y~13_combout\ $end
$var wire 1 $! \fullRamC~input_o\ $end
$var wire 1 %! \fullC~input_o\ $end
$var wire 1 &! \START~input_o\ $end
$var wire 1 '! \y~14_combout\ $end
$var wire 1 (! \Resetn~input_o\ $end
$var wire 1 )! \y.C~q\ $end
$var wire 1 *! \y~15_combout\ $end
$var wire 1 +! \y.F~q\ $end
$var wire 1 ,! \Selector4~0_combout\ $end
$var wire 1 -! \y.I~q\ $end
$var wire 1 .! \Selector0~0_combout\ $end
$var wire 1 /! \y.A~q\ $end
$var wire 1 0! \Selector1~0_combout\ $end
$var wire 1 1! \y.B~q\ $end
$var wire 1 2! \WideOr6~combout\ $end
$var wire 1 3! \WideOr7~combout\ $end
$var wire 1 4! \ALT_INV_fullC~input_o\ $end
$var wire 1 5! \ALT_INV_sensor_movimiento_piso3~input_o\ $end
$var wire 1 6! \ALT_INV_sensor_luz_piso3~input_o\ $end
$var wire 1 7! \ALT_INV_START~input_o\ $end
$var wire 1 8! \ALT_INV_fullRamC~input_o\ $end
$var wire 1 9! \ALT_INV_y~13_combout\ $end
$var wire 1 :! \ALT_INV_y.A~q\ $end
$var wire 1 ;! \ALT_INV_y.F~q\ $end
$var wire 1 <! \ALT_INV_y.I~q\ $end
$var wire 1 =! \ALT_INV_y.C~q\ $end
$var wire 1 >! \ALT_INV_y.B~q\ $end
$upscope $end
$upscope $end
$enddefinitions $end
#0
$dumpvars
0!
0"
0#
0$
0%
0&
0'
0(
0)
0*
1+
0,
1-
0.
0/
10
01
02
03
04
05
06
17
08
09
1:
1;
1<
0=
1>
0?
0@
0A
1B
0C
0D
0E
0F
1G
xH
1I
1J
1K
1L
1M
1N
0O
1P
1Q
0R
1S
0T
1U
1V
0W
0X
0Y
0Z
0[
0\
0]
0^
0_
0`
0a
0b
0c
0d
0e
1f
1g
0h
1i
0j
0k
0l
0m
0n
0o
0p
0q
0r
1s
0t
1u
0v
1w
0x
0y
1z
0{
x|
0}
0~
1!!
0"!
0#!
1$!
1%!
1&!
0'!
1(!
0)!
0*!
0+!
0,!
0-!
1.!
0/!
10!
01!
02!
13!
04!
15!
06!
07!
08!
19!
1:!
1;!
1<!
1=!
1>!
$end
#5000
1!
1,
0-
1/
00
18
0;
0<
1O
1h
0i
1e
0f
1R
0S
0U
0w
0u
1t
0$!
1y
0%!
1{
1}
1~
14!
18!
1/!
11!
0>!
0:!
03!
12!
1X
1Y
1Z
1m
1n
1o
1%
1&
1'
1C
1D
1E
1r
0s
1A
0B
#10000
0!
0,
1-
0/
08
1<
19
1=
0O
0h
1i
0e
0R
1U
1T
1W
1"!
1v
1w
0t
0y
1%!
0{
0}
0~
04!
05!
1#!
1'!
09!
00!
#15000
1!
0-
18
0<
10
0+
1.
0:
1O
0i
1R
0U
1f
0g
1d
0V
0!!
1x
0z
1$!
0w
1t
0%!
1}
1~
14!
08!
16!
0#!
0'!
1)!
01!
1>!
0=!
19!
1*!
13!
0X
0Y
0Z
0m
0n
0o
1[
1\
1]
0%
0&
0'
0C
0D
0E
1(
1)
1*
1s
1B
#20000
0!
1<
1:
1,
1/
1;
0O
1U
1V
1h
1e
1S
1u
1y
1{
1!!
1w
0}
0~
06!
1#!
09!
#25000
1!
0<
0:
0/
0;
08
00
1+
09
1O
0U
0V
0e
0S
0R
0f
1g
0T
0v
1z
0$!
0t
0u
0y
0!!
0w
1}
1~
16!
18!
0*!
10!
0#!
0)!
1+!
0;!
1=!
19!
00!
03!
1,!
1q
0[
0\
0]
1@
0(
0)
0*
0s
0B
#30000
0!
1<
1:
1;
0.
0=
0O
1U
1V
1S
0d
0W
0"!
0x
1u
1!!
1w
0}
0~
06!
15!
#35000
1!
0<
0:
0;
1=
1O
0U
0V
0S
1W
1"!
0u
0!!
0w
1}
1~
16!
05!
0+!
1-!
0<!
1;!
02!
1`
1l
0q
1$
16
0@
0r
0A
#40000
0!
1;
18
0+
0O
1S
1R
0g
0z
1t
1u
0}
0~
#45000
1!
1+
1:
0=
1.
10
19
1O
1g
1V
0W
1d
1f
1T
1v
1$!
1x
0"!
1!!
1z
1}
1~
06!
15!
08!
#50000
0!
0+
1=
0.
09
0;
08
0O
0g
1W
0d
0T
0S
0R
0t
0u
0v
0x
1"!
0z
0}
0~
05!
1#!
09!
#55000
1!
1;
00
1/
0,
1O
1S
0f
1e
0h
0{
1y
0$!
1u
1}
1~
18!
#60000
0!
10
0/
0=
1.
19
0:
0O
1f
0e
0W
1d
1T
0V
0!!
1v
1x
0"!
0y
1$!
0}
0~
08!
15!
16!
0#!
19!
#65000
1!
09
0;
1+
1<
1O
0T
0S
1g
1U
1w
1z
0u
0v
1}
1~
#70000
0!
19
1;
1=
0.
1,
18
1-
0O
1T
1S
1W
0d
1h
1R
1i
1%!
1t
1{
0x
1"!
1u
1v
0}
0~
05!
04!
0,!
0.!
#75000
1!
0<
00
1:
1O
0U
0f
1V
1!!
0$!
0w
1}
1~
18!
06!
1#!
0-!
0/!
1:!
1<!
09!
1.!
10!
13!
0`
0l
0$
06
1s
1B
#80000
0!
10
09
0;
0+
1/
0O
1f
0T
0S
0g
1e
1y
0z
0u
0v
1$!
0}
0~
08!
#85000
1!
00
19
1;
0:
0=
0,
1O
0f
1T
1S
0V
0W
0h
0{
0"!
0!!
1u
1v
0$!
1}
1~
18!
16!
15!
0#!
1/!
11!
0>!
0:!
19!
03!
12!
1X
1Y
1Z
1m
1n
1o
1%
1&
1'
1C
1D
1E
1r
0s
1A
0B
#90000
0!
10
0;
1:
1=
1,
1+
1<
08
0-
0O
1f
0S
1V
1W
1h
1g
1U
0R
0i
0%!
0t
1w
1z
1{
1"!
1!!
0u
1$!
0}
0~
08!
06!
05!
14!
1#!
1'!
09!
00!
#95000
1!
00
0:
09
0/
1O
0f
0V
0T
0e
0y
0v
0!!
0$!
1}
1~
18!
16!
0#!
0'!
1)!
01!
1>!
0=!
19!
13!
10!
0X
0Y
0Z
0m
0n
0o
1[
1\
1]
0%
0&
0'
0C
0D
0E
1(
1)
1*
1s
1B
#100000
0!
1:
19
0=
0+
0<
18
1-
0O
1V
1T
0W
0g
0U
1R
1i
1%!
1t
0w
0z
0"!
1v
1!!
0}
0~
06!
15!
04!
#105000
1!
0:
09
1+
1<
0-
10
1/
1O
0V
0T
1g
1U
0i
1f
1e
1y
1$!
0%!
1w
1z
0v
0!!
1}
1~
16!
14!
08!
1*!
00!
0)!
11!
0>!
1=!
0*!
03!
10!
1X
1Y
1Z
1m
1n
1o
0[
0\
0]
1%
1&
1'
1C
1D
1E
0(
0)
0*
0s
0B
#110000
0!
1:
19
00
08
0,
0O
1V
1T
0f
0R
0h
0{
0t
0$!
1v
1!!
0}
0~
06!
18!
#115000
1!
10
18
1-
1;
1.
1O
1f
1R
1i
1S
1d
1x
1u
1%!
1t
1$!
1}
1~
08!
04!
#120000
0!
08
0-
0.
0:
1,
0/
0O
0R
0i
0d
0V
1h
0e
0y
1{
0!!
0x
0%!
0t
0}
0~
14!
16!
#125000
1!
1-
1.
0,
00
0+
0<
1O
1i
1d
0h
0f
0g
0U
0w
0z
0$!
0{
1x
1%!
1}
1~
04!
18!
#130000
0!
0-
0.
1+
1<
1:
0;
09
1=
0O
0i
0d
1g
1U
1V
0S
0T
1W
1"!
0v
0u
1!!
1w
1z
0x
0%!
0}
0~
14!
06!
05!
1#!
1'!
09!
00!
#135000
1!
0+
0:
1;
0=
1,
10
18
1/
1O
0g
0V
1S
0W
1h
1f
1R
1e
1y
1t
1$!
1{
0"!
1u
0!!
0z
1}
1~
16!
15!
08!
0#!
0'!
1)!
01!
1>!
0=!
19!
1*!
13!
0X
0Y
0Z
0m
0n
0o
1[
1\
1]
0%
0&
0'
0C
0D
0E
1(
1)
1*
1s
1B
#140000
0!
1:
1=
0,
00
08
0/
1-
1.
0O
1V
1W
0h
0f
0R
0e
1i
1d
1x
1%!
0y
0t
0$!
0{
1"!
1!!
0}
0~
06!
05!
18!
04!
0*!
10!
1#!
09!
#145000
1!
0:
1,
18
1+
0;
0<
19
1O
0V
1h
1R
1g
0S
0U
1T
1v
0w
0u
1z
1t
1{
0!!
1}
1~
16!
0#!
0)!
11!
0>!
1=!
19!
03!
1X
1Y
1Z
1m
1n
1o
0[
0\
0]
1%
1&
1'
1C
1D
1E
0(
0)
0*
0s
0B
#150000
0!
1:
0+
1<
10
1/
0-
0.
0O
1V
0g
1U
1f
1e
0i
0d
0x
0%!
1y
1$!
1w
0z
1!!
0}
0~
06!
08!
14!
1#!
1'!
09!
00!
#155000
1!
1+
0<
0/
0,
1;
09
1O
1g
0U
0e
0h
1S
0T
0v
1u
0{
0y
0w
1z
1}
1~
1)!
01!
1>!
0=!
1*!
13!
0'!
0X
0Y
0Z
0m
0n
0o
1[
1\
1]
0%
0&
0'
0C
0D
0E
1(
1)
1*
1s
1B
#160000
0!
0+
1/
1,
00
1.
08
0=
0O
0g
1e
1h
0f
1d
0R
0W
0"!
0t
1x
0$!
1{
1y
0z
0}
0~
18!
15!
0#!
0*!
10!
19!
#165000
1!
1+
10
18
0;
0:
1-
1O
1g
1f
1R
0S
0V
1i
1%!
0!!
0u
1t
1$!
1z
1}
1~
08!
16!
04!
1*!
00!
0)!
11!
0>!
1=!
0*!
03!
10!
1X
1Y
1Z
1m
1n
1o
0[
0\
0]
1%
1&
1'
1C
1D
1E
0(
0)
0*
0s
0B
#170000
0!
0+
1;
1:
0-
0/
0,
0.
1=
1<
19
0O
0g
1S
1V
0i
0e
0h
0d
1W
1U
1T
1v
1w
1"!
0x
0{
0y
0%!
1!!
1u
0z
0}
0~
06!
14!
05!
1#!
1'!
09!
00!
#175000
1!
1-
1,
1.
0=
0<
00
08
1O
1i
1h
1d
0W
0U
0f
0R
0t
0$!
0w
0"!
1x
1{
1%!
1}
1~
04!
15!
18!
0#!
0'!
1)!
01!
1>!
0=!
19!
13!
10!
0X
0Y
0Z
0m
0n
0o
1[
1\
1]
0%
0&
0'
0C
0D
0E
1(
1)
1*
1s
1B
#180000
0!
0-
0.
1=
1<
1+
0;
0:
1/
09
0O
0i
0d
1W
1U
1g
0S
0V
1e
0T
0v
1y
0!!
0u
1z
1w
1"!
0x
0%!
0}
0~
14!
05!
16!
#185000
1!
1.
0=
1;
1:
1O
1d
0W
1S
1V
1!!
1u
0"!
1x
1}
1~
15!
06!
0)!
11!
0>!
1=!
03!
1X
1Y
1Z
1m
1n
1o
0[
0\
0]
1%
1&
1'
1C
1D
1E
0(
0)
0*
0s
0B
#190000
0!
0<
0+
18
0O
0U
0g
1R
1t
0z
0w
0}
0~
#195000
1!
1<
0.
0/
1O
1U
0d
0e
0y
0x
1w
1}
1~
#200000
0!
1.
1/
1+
0;
1-
0,
10
0O
1d
1e
1g
0S
1i
0h
1f
1$!
0{
1%!
0u
1z
1y
1x
0}
0~
04!
08!
#205000
1!
0.
0+
00
0<
08
0:
1O
0d
0g
0f
0U
0R
0V
0!!
0t
0w
0$!
0z
0x
1}
1~
18!
16!
#210000
0!
1.
1<
1,
1=
0O
1d
1U
1h
1W
1"!
1{
1w
1x
0}
0~
05!
#215000
1!
0.
10
18
1;
0-
1O
0d
1f
1R
1S
0i
0%!
1u
1t
1$!
0x
1}
1~
08!
14!
#220000
0!
1.
00
08
0,
1:
0/
19
0O
1d
0f
0R
0h
1V
0e
1T
1v
0y
1!!
0{
0t
0$!
1x
0}
0~
18!
06!
1#!
1'!
09!
00!
#225000
1!
0.
10
1,
0:
09
0;
1-
0<
0=
1+
1O
0d
1f
1h
0V
0T
0S
1i
0U
0W
1g
1z
0"!
0w
1%!
0u
0v
0!!
1{
1$!
0x
1}
1~
08!
16!
04!
15!
0#!
0'!
1)!
01!
1>!
0=!
19!
1*!
13!
0X
0Y
0Z
0m
0n
0o
1[
1\
1]
0%
0&
0'
0C
0D
0E
1(
1)
1*
1s
1B
#230000
0!
0,
1:
19
1<
0O
0h
1V
1T
1U
1w
1v
1!!
0{
0}
0~
06!
#235000
1!
0:
1.
00
1;
0-
1=
0+
1O
0V
1d
0f
1S
0i
1W
0g
0z
1"!
0%!
1u
0$!
1x
0!!
1}
1~
16!
18!
14!
05!
0*!
10!
0)!
1+!
0;!
1=!
00!
03!
1,!
1q
0[
0\
0]
1@
0(
0)
0*
0s
0B
#240000
0!
1:
0.
0;
1-
09
0<
18
0O
1V
0d
0S
1i
0T
0U
1R
1t
0w
0v
1%!
0u
0x
1!!
0}
0~
06!
04!
1#!
09!
#245000
1!
0:
1.
1;
0-
19
10
1,
1O
0V
1d
1S
0i
1T
1f
1h
1{
1$!
1v
0%!
1u
1x
0!!
1}
1~
16!
14!
08!
0#!
0+!
1-!
0<!
1;!
19!
02!
1`
1l
0q
1$
16
0@
0r
0A
#250000
0!
09
1<
0=
1+
0O
0T
1U
0W
1g
1z
0"!
1w
0v
0}
0~
15!
#255000
1!
1=
0+
0;
1-
00
08
1/
1O
1W
0g
0S
1i
0f
0R
1e
1y
0t
0$!
1%!
0u
0z
1"!
1}
1~
05!
04!
18!
0,!
0.!
#260000
0!
0-
10
18
19
0<
0.
0,
0O
0i
1f
1R
1T
0U
0d
0h
0{
0x
0w
1v
1t
1$!
0%!
0}
0~
14!
08!
1,!
1.!
#265000
1!
09
1.
1,
0=
0/
1O
0T
1d
1h
0W
0e
0y
0"!
1{
1x
0v
1}
1~
15!
#270000
0!
0,
1=
1/
1<
1+
1:
0O
0h
1W
1e
1U
1g
1V
1!!
1z
1w
1y
1"!
0{
0}
0~
05!
06!
1#!
09!
#275000
1!
1,
0=
0:
19
1-
1O
1h
0W
0V
1T
1i
1%!
1v
0!!
0"!
1{
1}
1~
15!
16!
04!
0,!
0.!
0#!
19!
#280000
0!
1=
1:
09
0/
0.
08
1;
0O
1W
1V
0T
0e
0d
0R
1S
1u
0t
0x
0y
0v
1!!
1"!
0}
0~
05!
06!
1#!
09!
#285000
1!
19
0;
0-
0<
00
1O
1T
0S
0i
0U
0f
0$!
0w
0%!
0u
1v
1}
1~
14!
18!
1,!
1.!
0-!
0/!
1:!
1<!
0,!
10!
13!
0`
0l
0$
06
1s
1B
#290000
0!
0=
1.
0O
0W
1d
1x
0"!
0}
0~
15!
0#!
19!
#295000
1!
1=
1<
10
0,
0+
1O
1W
1U
1f
0h
0g
0z
0{
1$!
1w
1"!
1}
1~
05!
08!
1#!
1/!
11!
0>!
0:!
09!
03!
1'!
00!
12!
1X
1Y
1Z
1m
1n
1o
1%
1&
1'
1C
1D
1E
1r
0s
1A
0B
#300000
0!
0=
00
1,
1+
0.
09
0:
0O
0W
0f
1h
1g
0d
0T
0V
0!!
0v
0x
1z
1{
0$!
0"!
0}
0~
15!
18!
16!
0#!
0'!
19!
10!
#305000
1!
1=
10
0+
1;
1-
18
1O
1W
1f
0g
1S
1i
1R
1t
1%!
1u
0z
1$!
1"!
1}
1~
05!
08!
04!
#310000
0!
00
1+
0;
08
19
1:
1/
0O
0f
1g
0S
0R
1T
1V
1e
1y
1!!
1v
0t
0u
1z
0$!
0}
0~
18!
06!
1#!
1'!
09!
00!
#315000
1!
18
0:
0/
0=
1.
0<
1O
1R
0V
0e
0W
1d
0U
0w
1x
0"!
0y
0!!
1t
1}
1~
16!
15!
0#!
0'!
1)!
01!
1>!
0=!
19!
13!
10!
0X
0Y
0Z
0m
0n
0o
1[
1\
1]
0%
0&
0'
0C
0D
0E
1(
1)
1*
1s
1B
#320000
0!
0.
1<
10
0+
1;
0-
0,
0O
0d
1U
1f
0g
1S
0i
0h
0{
0%!
1u
0z
1$!
1w
0x
0}
0~
08!
14!
1*!
00!
#325000
1!
0<
0;
08
1=
1O
0U
0S
0R
1W
1"!
0t
0u
0w
1}
1~
05!
0)!
1+!
0;!
1=!
0*!
03!
1,!
1q
0[
0\
0]
1@
0(
0)
0*
0s
0B
#330000
0!
1<
18
1.
00
1-
1,
09
0O
1U
1R
1d
0f
1i
1h
0T
0v
1{
1%!
0$!
1x
1t
1w
0}
0~
18!
04!
#335000
1!
0<
10
0,
1;
0=
1+
1:
1/
1O
0U
1f
0h
1S
0W
1g
1V
1e
1y
1!!
1z
0"!
1u
0{
1$!
0w
1}
1~
08!
15!
06!
0+!
1-!
0<!
1;!
02!
0,!
0.!
1`
1l
0q
1$
16
0@
0r
0A
#340000
0!
1<
1=
0+
0/
0.
0O
1U
1W
0g
0e
0d
0x
0y
0z
1"!
1w
0}
0~
05!
1#!
09!
#345000
1!
0<
1.
1,
08
19
1O
0U
1d
1h
0R
1T
1v
0t
1{
1x
0w
1}
1~
0-!
0/!
1:!
1<!
1.!
10!
13!
0`
0l
0$
06
1s
1B
#350000
0!
1<
0,
18
00
0O
1U
0h
1R
0f
0$!
1t
0{
1w
0}
0~
18!
#355000
1!
08
0=
1/
0:
0-
1O
0R
0W
1e
0V
0i
0%!
0!!
1y
0"!
0t
1}
1~
15!
16!
14!
0#!
1/!
11!
0>!
0:!
19!
03!
12!
1X
1Y
1Z
1m
1n
1o
1%
1&
1'
1C
1D
1E
1r
0s
1A
0B
#360000
0!
18
1=
0/
1-
0<
1,
0;
0O
1R
1W
0e
1i
0U
1h
0S
0u
1{
0w
1%!
0y
1"!
1t
0}
0~
05!
04!
#365000
1!
08
0=
1<
0,
09
1+
1O
0R
0W
1U
0h
0T
1g
1z
0v
0{
1w
0"!
0t
1}
1~
15!
#370000
0!
18
1=
0<
0+
1/
0-
1:
10
0O
1R
1W
0U
0g
1e
0i
1V
1f
1$!
1!!
0%!
1y
0z
0w
1"!
1t
0}
0~
05!
14!
06!
08!
1#!
1'!
09!
00!
#375000
1!
1+
0/
1-
1,
0.
1O
1g
0e
1i
1h
0d
0x
1{
1%!
0y
1z
1}
1~
04!
1)!
01!
1>!
0=!
1*!
13!
0'!
0X
0Y
0Z
0m
0n
0o
1[
1\
1]
0%
0&
0'
0C
0D
0E
1(
1)
1*
1s
1B
#380000
0!
0+
1/
0-
0,
08
0=
1<
19
1;
0O
0g
1e
0i
0h
0R
0W
1U
1T
1S
1u
1v
1w
0"!
0t
0{
0%!
1y
0z
0}
0~
14!
15!
0#!
19!
#385000
1!
1+
1-
0<
09
1.
00
1O
1g
1i
0U
0T
1d
0f
0$!
1x
0v
0w
1%!
1z
1}
1~
04!
18!
0*!
10!
0)!
1+!
0;!
1=!
00!
03!
1,!
1q
0[
0\
0]
1@
0(
0)
0*
0s
0B
#390000
0!
0+
1<
19
0.
10
0/
18
1=
0O
0g
1U
1T
0d
1f
0e
1R
1W
1"!
1t
0y
1$!
0x
1v
1w
0z
0}
0~
08!
05!
1#!
09!
#395000
1!
1+
1.
1/
08
0=
0;
1O
1g
1d
1e
0R
0W
0S
0u
0"!
0t
1y
1x
1z
1}
1~
15!
0#!
0+!
1-!
0<!
1;!
19!
02!
0,!
0.!
1`
1l
0q
1$
16
0@
0r
0A
#400000
0!
1;
09
0O
1S
0T
0v
1u
0}
0~
#405000
1!
0;
19
0+
0/
18
0-
1,
0:
1O
0S
1T
0g
0e
1R
0i
1h
0V
0!!
1{
0%!
1t
0y
0z
1v
0u
1}
1~
14!
16!
1,!
1.!
0-!
0/!
1:!
1<!
0,!
10!
13!
0`
0l
0$
06
1s
1B
#410000
0!
09
0,
1:
0.
1=
0<
00
0O
0T
0h
1V
0d
1W
0U
0f
0$!
0w
1"!
0x
1!!
0{
0v
0}
0~
06!
05!
18!
1#!
09!
#415000
1!
1,
0:
10
1/
08
1-
1O
1h
0V
1f
1e
0R
1i
1%!
0t
1y
1$!
0!!
1{
1}
1~
16!
08!
04!
0#!
1/!
11!
0>!
0:!
19!
03!
12!
1X
1Y
1Z
1m
1n
1o
1%
1&
1'
1C
1D
1E
1r
0s
1A
0B
#420000
0!
0,
1:
18
1.
0=
1;
1+
0O
0h
1V
1R
1d
0W
1S
1g
1z
1u
0"!
1x
1t
1!!
0{
0}
0~
06!
15!
#425000
1!
08
0.
0+
00
0/
0-
19
1<
1O
0R
0d
0g
0f
0e
0i
1T
1U
1w
1v
0%!
0y
0$!
0z
0x
0t
1}
1~
18!
14!
#430000
0!
18
1.
10
1/
1-
09
1=
0O
1R
1d
1f
1e
1i
0T
1W
1"!
0v
1%!
1y
1$!
1x
1t
0}
0~
08!
04!
05!
1#!
1'!
09!
00!
#435000
1!
08
0.
0/
0=
1O
0R
0d
0e
0W
0"!
0y
0x
0t
1}
1~
15!
0#!
0'!
1)!
01!
1>!
0=!
19!
1*!
13!
0X
0Y
0Z
0m
0n
0o
1[
1\
1]
0%
0&
0'
0C
0D
0E
1(
1)
1*
1s
1B
#440000
0!
1.
1=
00
1+
1,
0:
0;
0O
1d
1W
0f
1g
1h
0V
0S
0u
0!!
1{
1z
0$!
1"!
1x
0}
0~
05!
18!
16!
0*!
10!
#445000
1!
10
0+
1:
1;
18
0-
19
0<
1O
1f
0g
1V
1S
1R
0i
1T
0U
0w
1v
0%!
1t
1u
1!!
0z
1$!
1}
1~
08!
06!
14!
1#!
1*!
00!
0)!
11!
0>!
1=!
09!
0*!
03!
1'!
1X
1Y
1Z
1m
1n
1o
0[
0\
0]
1%
1&
1'
1C
1D
1E
0(
0)
0*
0s
0B
#450000
0!
00
1+
0:
0;
08
1-
09
0=
0O
0f
1g
0V
0S
0R
1i
0T
0W
0"!
0v
1%!
0t
0u
0!!
1z
0$!
0}
0~
18!
16!
04!
15!
0#!
0'!
19!
10!
#455000
1!
10
0+
1:
1;
19
1<
1/
1O
1f
0g
1V
1S
1T
1U
1e
1y
1w
1v
1u
1!!
0z
1$!
1}
1~
08!
06!
#460000
0!
00
0:
09
0<
18
0-
1=
0O
0f
0V
0T
0U
1R
0i
1W
1"!
0%!
1t
0w
0v
0!!
0$!
0}
0~
18!
16!
14!
05!
#465000
1!
10
1:
1<
1-
0=
1+
0;
0/
0,
1O
1f
1V
1U
1i
0W
1g
0S
0e
0h
0{
0y
0u
1z
0"!
1%!
1w
1!!
1$!
1}
1~
08!
06!
04!
15!
#470000
0!
0<
0-
0+
1/
1,
08
0O
0U
0i
0g
1e
1h
0R
0t
1{
1y
0z
0%!
0w
0}
0~
14!
#475000
1!
1<
1+
0/
0,
18
00
0:
1;
0.
1O
1U
1g
0e
0h
1R
0f
0V
1S
0d
0x
1u
0!!
0$!
1t
0{
0y
1z
1w
1}
1~
18!
16!
#480000
0!
0<
08
1:
0;
1.
1-
0O
0U
0R
1V
0S
1d
1i
1%!
1x
0u
1!!
0t
0w
0}
0~
06!
04!
#485000
1!
1<
0:
1;
0-
0+
1/
1,
10
1=
1O
1U
0V
1S
0i
0g
1e
1h
1f
1W
1"!
1$!
1{
1y
0z
0%!
1u
0!!
1w
1}
1~
16!
14!
08!
05!
#490000
0!
0;
1+
0,
0.
0O
0S
1g
0h
0d
0x
0{
1z
0u
0}
0~
#495000
1!
1;
0+
1,
1.
0<
1:
1-
0=
1O
1S
0g
1h
1d
0U
1V
1i
0W
0"!
1%!
1!!
0w
1x
1{
0z
1u
1}
1~
06!
04!
15!
#500000
0!
0;
1<
0-
1=
00
19
0O
0S
1U
0i
1W
0f
1T
1v
0$!
1"!
0%!
1w
0u
0}
0~
14!
05!
18!
1#!
1'!
09!
00!
#505000
1!
1;
0<
1-
0=
09
0,
0/
18
1O
1S
0U
1i
0W
0T
0h
0e
1R
1t
0y
0{
0v
0"!
1%!
0w
1u
1}
1~
04!
15!
0#!
0'!
1)!
01!
1>!
0=!
19!
13!
10!
0X
0Y
0Z
0m
0n
0o
1[
1\
1]
0%
0&
0'
0C
0D
0E
1(
1)
1*
1s
1B
#510000
0!
0;
0-
1/
0:
0O
0S
0i
1e
0V
0!!
1y
0%!
0u
0}
0~
14!
16!
#515000
1!
0/
1:
1=
19
1,
08
1+
0.
1O
0e
1V
1W
1T
1h
0R
1g
0d
0x
1z
0t
1{
1v
1"!
1!!
0y
1}
1~
06!
05!
1#!
0)!
11!
0>!
1=!
09!
03!
1'!
00!
1X
1Y
1Z
1m
1n
1o
0[
0\
0]
1%
1&
1'
1C
1D
1E
0(
0)
0*
0s
0B
#520000
0!
0:
0=
09
0,
18
0+
1;
10
0O
0V
0W
0T
0h
1R
0g
1S
1f
1$!
1u
0z
1t
0{
0v
0"!
0!!
0}
0~
16!
15!
08!
0#!
0'!
19!
10!
#525000
1!
1:
19
1,
00
1.
1O
1V
1T
1h
0f
1d
1x
0$!
1{
1v
1!!
1}
1~
06!
18!
#530000
0!
0:
1=
08
1+
0;
1-
0O
0V
1W
0R
1g
0S
1i
1%!
0u
1z
0t
1"!
0!!
0}
0~
16!
05!
04!
#535000
1!
1:
0=
18
0+
09
10
1<
1O
1V
0W
1R
0g
0T
1f
1U
1w
1$!
0v
0z
1t
0"!
1!!
1}
1~
06!
15!
08!
#540000
0!
1=
00
0<
1;
0-
0.
0O
1W
0f
0U
1S
0i
0d
0x
0%!
1u
0w
0$!
1"!
0}
0~
05!
18!
14!
1#!
1'!
09!
00!
#545000
1!
10
1<
1-
0:
08
1+
19
1O
1f
1U
1i
0V
0R
1g
1T
1v
1z
0t
0!!
1%!
1w
1$!
1}
1~
08!
04!
16!
0#!
0'!
1)!
01!
1>!
0=!
19!
1*!
13!
0X
0Y
0Z
0m
0n
0o
1[
1\
1]
0%
0&
0'
0C
0D
0E
1(
1)
1*
1s
1B
#550000
0!
0<
0-
18
0+
09
0;
1.
0,
1/
0O
0U
0i
1R
0g
0T
0S
1d
0h
1e
1y
0{
1x
0u
0v
0z
1t
0%!
0w
0}
0~
14!
#555000
1!
1-
08
19
1;
0.
1,
00
1:
1O
1i
0R
1T
1S
0d
1h
0f
1V
1!!
0$!
1{
0x
1u
1v
0t
1%!
1}
1~
04!
18!
06!
1#!
0*!
10!
0)!
1+!
0;!
1=!
09!
00!
03!
1,!
1q
0[
0\
0]
1@
0(
0)
0*
0s
0B
